…
<img src="cross_validation_files/figure-gfm/unnamed-chunk-2-1.png" width="90%" />

## Cross-validation by hand (Create splits by hand, plot, fit some models)

``` r
train_df = sample_n(nonlin_df, 80)

test_df = anti_join(nonlin_df, train_df, by = "id")

train_df %>% arrange(id)
```

    ## # A tibble: 80 × 3
    ##       id      x       y
    ##    <int>  <dbl>   <dbl>
    ##  1     1 0.266   1.11  
    ##  2     2 0.372   0.764 
    ##  3     3 0.573   0.358 
    ##  4     4 0.908  -3.04  
    ##  5     5 0.202   1.33  
    ##  6     6 0.898  -1.99  
    ##  7     7 0.945  -3.27  
    ##  8     9 0.629   0.0878
    ##  9    10 0.0618  0.392 
    ## 10    11 0.206   1.63  
    ## # … with 70 more rows
…
Comes up with a dataset with a resample object -training dataset, then a
resample object - testing dataset, then the ID, and then we’ll add our
model outputs in following columns

``` r
cv_df %>% 
  pull(train) %>% 
  .[[1]] %>% 
  as_tibble()
```

    ## # A tibble: 79 × 3
    ##       id      x       y
    ##    <int>  <dbl>   <dbl>
    ##  1     1 0.266   1.11  
    ##  2     2 0.372   0.764 
    ##  3     3 0.573   0.358 
    ##  4     4 0.908  -3.04  
    ##  5     6 0.898  -1.99  
    ##  6     7 0.945  -3.27  
    ##  7     8 0.661  -0.615 
    ##  8     9 0.629   0.0878
    ##  9    10 0.0618  0.392 
    ## 10    11 0.206   1.63  
    ## # … with 69 more rows
…
Let’s fit some models

``` r
cv_df %>% 
  mutate(
    linear_mod = map(.x = train, ~lm(y ~ x, data = .x))
  ) %>% 
  mutate(
    rmse_linear = map2_dbl(.x = linear_mod, .y = test, ~rmse(model = .x, data = .y))
  )
```

    ## # A tibble: 100 × 5
    ##    train             test              .id   linear_mod rmse_linear
    ##    <list>            <list>            <chr> <list>           <dbl>
    ##  1 <tibble [79 × 3]> <tibble [21 × 3]> 001   <lm>             0.747
    ##  2 <tibble [79 × 3]> <tibble [21 × 3]> 002   <lm>             0.602
    ##  3 <tibble [79 × 3]> <tibble [21 × 3]> 003   <lm>             0.955
    ##  4 <tibble [79 × 3]> <tibble [21 × 3]> 004   <lm>             0.691
    ##  5 <tibble [79 × 3]> <tibble [21 × 3]> 005   <lm>             0.712
    ##  6 <tibble [79 × 3]> <tibble [21 × 3]> 006   <lm>             0.610
    ##  7 <tibble [79 × 3]> <tibble [21 × 3]> 007   <lm>             0.758
    ##  8 <tibble [79 × 3]> <tibble [21 × 3]> 008   <lm>             0.803
    ##  9 <tibble [79 × 3]> <tibble [21 × 3]> 009   <lm>             0.705
    ## 10 <tibble [79 × 3]> <tibble [21 × 3]> 010   <lm>             0.959
    ## # … with 90 more rows
…
Everything relevant to the training and testing split is in this column
here

Look at output

``` r
cv_df %>% 
  select(starts_with("rmse"))
```

    ## # A tibble: 100 × 3
    ##    rmse_linear rmse_smooth rmse_wiggly
    ##          <dbl>       <dbl>       <dbl>
    ##  1       0.747       0.285       0.300
    ##  2       0.602       0.287       0.304
    ##  3       0.955       0.324       0.379
    ##  4       0.691       0.290       0.333
    ##  5       0.712       0.336       0.420
    ##  6       0.610       0.232       0.303
    ##  7       0.758       0.327       0.439
    ##  8       0.803       0.257       0.320
    ##  9       0.705       0.304       0.396
    ## 10       0.959       0.284       0.328
    ## # … with 90 more rows
…
